com\binar\service\MeanMedMod.class
com\binar\Main.class
com\binar\model\Student.class
com\binar\service\MainMenu.class
com\binar\controller\Controller.class
com\binar\service\MenuSelesai.class
com\binar\service\Menuku.class
